Beer: A ‘Case’ Study
…
write.csv(beer, "beer.csv")

beer %>% filter(state %in% c('AZ'))

## # A tibble: 23 x 10
##    Beer      Beer_ID   ABV   IBU Brew_ID Style   OZ    Brewery  City  state
##    <chr>       <dbl> <dbl> <dbl>   <dbl> <chr>   <fct> <chr>    <chr> <chr>
##  1 Barrio B~    2005 0.06     60     252 Americ~ 12    Barrio ~ Tucs~ AZ   
##  2 Noche Du~    2062 0.071    16     232 Americ~ 16    Borderl~ Tucs~ AZ   
##  3 Sunbru K~    2309 0.052    17     161 Kölsch  12    Four Pe~ Tempe AZ   
##  4 Four Pea~    1585 0.042     9     161 Fruit ~ 12    Four Pe~ Tempe AZ   
##  5 Hop Knot~     358 0.067    47     161 Americ~ 12    Four Pe~ Tempe AZ   
##  6 Kilt Lif~     179 0.06     21     161 Scotti~ 12    Four Pe~ Tempe AZ   
##  7 Lumberya~    1153 0.053    20     159 Americ~ 12    Lumbery~ Flag~ AZ   
##  8 Camelback    2312 0.061    60     158 Americ~ 12    Phoenix~ Phoe~ AZ   
##  9 Sex Pant~    2599 0.069    20      31 Americ~ 12    SanTan ~ Chan~ AZ   
## 10 Winter W~    2073 0.095    25      31 Winter~ 16    SanTan ~ Chan~ AZ   
## # ... with 13 more rows
…
